{"name": "John Adam Smith",
"address": "324 W Adams, Chicago, IL 60605",
"insured_dob": "03/05/1978",
"insured": {"name":"johnny", "location":"mars"},
"first": ["this", {"first_name": "alisha"}],
"bene": {"name": "Sally Rider", "bene_dob":"08/19/2002", "bene_phone_number":"(878)-3436766"}
}